"","asset","date","price_close","price_high","price_low","volume"
"1","BND",2021-05-21,85.099998,85.150002,85.029999,5050800
"2","VTI",2021-05-21,214.970001,216.740005,214.710007,3621300
"3","VWO",2021-05-21,52.07,52.639999,51.990002,6525600
"4","GOOG",2021-05-21,2345.100098,2369,2342.370117,1139600
"5","EWJ",2021-05-21,67.93,68.07,67.57,7088800
"6","VCLT",2021-05-21,102.370003,102.629997,102.300003,524400
"7","BLV",2021-05-21,98.949997,98.980003,98.650002,268800
"8","VCSH",2021-05-21,82.800003,82.809998,82.760002,1859100
"9","VNQ",2021-05-21,97.879997,98.410004,97.650002,3018000
"10","EWS",2021-05-21,23.42,23.48,23.35,518700
"11","EPOL",2021-05-21,21.309999,21.5,21.219999,136900
"12","NIO",2021-05-21,34.060001,34.779999,33.869999,49419300
"13","GLD",2021-05-21,176.039993,176.860001,175.149994,7676200
"14","VYM",2021-05-21,106.669998,107.25,106.389999,1423200
"15","AMZN",2021-05-21,3203.080078,3256.689941,3197.01001,4097800
"16","FPADX",2021-05-21,13.15,13.15,13.15,0
"17","FSRNX",2021-05-21,16.879999,16.879999,16.879999,0
"18","FSSNX",2021-05-21,28.120001,28.120001,28.120001,0
"19","FSMDX",2021-05-21,30.43,30.43,30.43,0
"20","FXAIX",2021-05-21,144.449997,144.449997,144.449997,0
"21","SWRSX",2021-05-21,12.37,12.37,12.37,0
